<?xml version="1.0" encoding="utf-8"?>
<!-- Generator: Adobe Illustrator 16.0.4, SVG Export Plug-In . SVG Version: 6.00 Build 0)  -->
<!DOCTYPE svg PUBLIC "-//W3C//DTD SVG 1.1//EN" "http://www.w3.org/Graphics/SVG/1.1/DTD/svg11.dtd">
<svg version="1.1" id="Calque_1" xmlns="http://www.w3.org/2000/svg" xmlns:xlink="http://www.w3.org/1999/xlink" x="0px" y="0px"
	 width="509px" height="84px" viewBox="0 0 290.253 47.854" enable-background="new 0 0 290.253 47.854"
	 xml:space="preserve">
<g>
	<defs>
		<rect id="SVGID_1_" y="0" width="290.253" height="47.854"/>
	</defs>
	<clipPath id="SVGID_2_">
		<use xlink:href="#SVGID_1_"  overflow="visible"/>
	</clipPath>
	<path clip-path="url(#SVGID_2_)" fill-rule="evenodd" clip-rule="evenodd" fill="#FFFFFF" d="M275.972,25.189h0.043
		c30.2,0-15.496,0.023,13.321,0.023c0.507,0,0.917-0.409,0.917-0.915c0-0.509-0.41-0.92-0.917-0.92
		c-28.751,0,16.775-0.045-13.321-0.045h-0.043v0.003c-0.403,0.02-0.74,0.292-0.848,0.665h-4.646
		c-0.136-1.15-1.068-2.043-2.301-2.043c-1.231,0-2.315,1.037-2.315,2.315s1.08,2.315,2.315,2.315c1.236,0,2.178-0.902,2.303-2.063
		h4.644C275.231,24.897,275.568,25.173,275.972,25.189"/>
	<path clip-path="url(#SVGID_2_)" fill-rule="evenodd" clip-rule="evenodd" fill="#FFFFFF" d="M14.28,25.189h-0.043
		c-30.199,0,15.498,0.023-13.321,0.023C0.41,25.213,0,24.804,0,24.298c0-0.509,0.41-0.92,0.916-0.92
		c28.752,0-16.774-0.045,13.321-0.045h0.043v0.003c0.404,0.02,0.741,0.292,0.849,0.665h4.645c0.136-1.15,1.068-2.043,2.3-2.043
		s2.316,1.037,2.316,2.315s-1.08,2.315-2.316,2.315c-1.235,0-2.176-0.902-2.302-2.063h-4.643
		C15.021,24.897,14.684,25.173,14.28,25.189"/>
	<path clip-path="url(#SVGID_2_)" fill="#FFFFFF" d="M227.96,14.786c5.598,0.551,10.857,5.046,7.229,10.846
		c-2.417,3.866-8.436,6.08-12.23,7.056c-8.721,2.245-18.328,0.952-26.782-1.679c-9.759-3.037-19.199-8.015-27.65-12.373
		c-5.184-2.674-10.345-5.456-15.574-8.096c-10.363-5.231-24.434-13.321-36.128-7.388c4.56-2.952,10.631-3.468,16.191-3
		c9.086,0.764,17.567,4.138,25.719,8.005c13.194,6.26,25.783,14.15,39.275,19.786c7.825,3.268,16.331,5.557,24.572,4.075
		c3.617-0.65,9.568-2.553,12.164-6.086C238.843,20.359,233.477,15.372,227.96,14.786"/>
	<path clip-path="url(#SVGID_2_)" fill-rule="evenodd" clip-rule="evenodd" fill="#FFFFFF" d="M206.913,31.968
		c-8.272,5.524-19.008,4.868-28.376,2.28c-14.214-3.927-26.984-11.245-39.788-18.317c-4.342-2.4-8.73-4.738-13.181-6.728
		c-3.647-1.631-7.352-3.095-11.138-4.298c-6.539-2.079-13.857-2.76-20.174,0.446c5.792-3.749,14.017-3.568,20.54-2.437
		c4.193,0.729,8.316,1.968,12.086,3.399c4.591,1.743,9.164,3.682,13.672,5.747c13.083,5.992,25.243,14.078,38.547,19.471
		C188.271,35.248,197.697,37.075,206.913,31.968"/>
	<path clip-path="url(#SVGID_2_)" fill="#FFFFFF" d="M94.753,5.064c-3.089,1.859-5.256,5.281-4.065,8.185
		c1.89,4.604,7.254,5.657,13.282,5.182c8.055-0.639,15.706-3.08,23.383-5.859c22.118-8.013,56.22-16.143,74.331,3.357
		c5.604,6.034,11.916,17.108,7.529,25.447c-1.88,3.573-5.701,6.112-11.909,6.457c-6.438,0.356-17.428-3.852-16.661-12.303
		c0.051,8.062,10.695,10.747,17.089,10.451c6.591-0.307,10.151-2.977,11.44-6.658c2.796-7.99-4.552-17.625-9.916-22.618
		c-18.793-17.495-49.607-10.302-71.225-2.516c-7.643,2.753-15.493,4.819-23.599,5.408c-7.308,0.532-13.905-0.65-15.388-6.189
		C88.209,10.286,91.335,6.784,94.753,5.064"/>
	<path clip-path="url(#SVGID_2_)" fill-rule="evenodd" clip-rule="evenodd" fill="#FFFFFF" d="M209.083,14.433
		c-3.582,4.505-1.416,11.406,5.809,13.114c2.527,0.6,5.12,0.663,7.737,0.394c8.133-0.842,15.539-4.596,23.478-6.253
		c3.708-0.775,7.483-1.03,11.076-0.008c3.935,1.121,7.134,4.221,6.43,8.667c-0.368,2.319-2.238,4.219-4.724,3.757
		c-1.695-0.314-3.279-1.537-3.139-3.176c0.095-1.102,1.113-1.788,2.222-1.592c0.561,0.101,1.062,0.505,1.276,1.432
		c0.289-0.906-0.462-1.815-1.247-1.909c-1.607-0.33-2.895,0.762-3.263,1.842c-0.727,2.331,1.704,4.913,4.104,4.696
		c2.622,0.117,4.607-2.694,5.03-5.075c0.812-4.565-2.617-7.833-6.551-9.171c-3.439-1.168-7.701-1.475-11.866-1.219
		c-8.251,0.508-15.075,4.188-23.007,5.774c-2.491,0.499-4.971,0.661-7.425,0.18C209.482,24.802,205.459,20.789,209.083,14.433"/>
	<path clip-path="url(#SVGID_2_)" fill-rule="evenodd" clip-rule="evenodd" fill="#FFFFFF" d="M209.514,13.891
		c4.429-5.77,12.24-5.818,18.568-3.819c5.353,1.691,10.353,5.077,13.692,9.505c3.491,4.627,5.353,10.591,2.414,16.052
		c-0.219,0.353-0.456,0.646-0.747,0.942c-4.355,4.437-12.639,4.296-16.118-0.282c-1.493-1.964-2.102-4.746-1.134-8.334
		c-1.249,2.812-1.156,6.516,0.419,8.772c3.519,5.037,12.653,5.058,16.88-0.119c0.255-0.314,0.504-0.637,0.748-0.958
		c3.701-5.56,1.995-11.925-1.44-17.03c-3.364-5-8.367-8.322-14.19-9.761C221.806,7.176,213.884,7.575,209.514,13.891"/>
	<path clip-path="url(#SVGID_2_)" fill="#FFFFFF" d="M273.842,23.975c-0.146,2.397-1.902,4.08-3.955,4.025
		c-2.153-0.057-4.495-2.251-1.786-3.976c-3.349,0.985-0.966,5.18,1.91,4.775c2.16-0.305,4.059-2.605,4.179-4.811
		c0.323-5.936-7.637-9.368-12.148-5.552c-3.068,2.595-3.785,7.699-2.818,11.726c-0.658-4.236,0.167-9.008,3.519-11.097
		C266.713,16.588,274.172,18.581,273.842,23.975"/>
	<path clip-path="url(#SVGID_2_)" fill="#FFFFFF" d="M61.02,33.067c-5.597-0.551-10.857-5.046-7.229-10.846
		c2.417-3.866,8.435-6.08,12.23-7.056c8.721-2.244,18.329-0.952,26.782,1.679c9.759,3.038,19.2,8.015,27.65,12.373
		c5.185,2.674,10.346,5.456,15.575,8.096c10.363,5.231,24.435,13.321,36.128,7.389c-4.561,2.952-10.631,3.468-16.19,3
		c-9.086-0.765-17.569-4.139-25.719-8.005c-13.194-6.261-25.783-14.15-39.275-19.787c-7.826-3.266-16.331-5.557-24.573-4.075
		c-3.617,0.65-9.568,2.553-12.164,6.086C50.137,27.494,55.503,32.482,61.02,33.067"/>
	<path clip-path="url(#SVGID_2_)" fill-rule="evenodd" clip-rule="evenodd" fill="#FFFFFF" d="M82.067,15.886
		c8.272-5.524,19.008-4.869,28.376-2.281c14.214,3.926,26.984,11.245,39.788,18.318c4.343,2.399,8.73,4.737,13.182,6.728
		c3.646,1.631,7.352,3.096,11.138,4.298c6.539,2.079,13.857,2.76,20.174-0.446c-5.792,3.749-14.017,3.568-20.54,2.438
		c-4.192-0.729-8.315-1.968-12.086-3.399c-4.591-1.743-9.164-3.682-13.672-5.747c-13.083-5.992-25.243-14.078-38.547-19.471
		C100.709,12.605,91.283,10.778,82.067,15.886"/>
	<path clip-path="url(#SVGID_2_)" fill="#FFFFFF" d="M194.227,42.789c3.089-1.858,5.256-5.28,4.064-8.185
		c-1.89-4.604-7.254-5.656-13.281-5.182c-8.056,0.639-15.707,3.08-23.383,5.859c-22.119,8.013-56.22,16.143-74.333-3.357
		c-5.604-6.033-11.915-17.108-7.528-25.447c1.879-3.573,5.701-6.112,11.908-6.457c6.438-0.357,17.428,3.851,16.662,12.303
		C108.286,4.261,97.642,1.577,91.248,1.872c-6.591,0.307-10.151,2.977-11.44,6.659c-2.796,7.99,4.551,17.625,9.916,22.618
		c18.793,17.495,49.607,10.302,71.224,2.516c7.644-2.753,15.493-4.817,23.6-5.407c7.308-0.532,13.904,0.649,15.388,6.188
		C200.771,37.566,197.645,41.069,194.227,42.789"/>
	<path clip-path="url(#SVGID_2_)" fill-rule="evenodd" clip-rule="evenodd" fill="#FFFFFF" d="M79.896,33.422
		c3.582-4.506,1.416-11.407-5.808-13.115c-2.528-0.599-5.121-0.663-7.737-0.393c-8.133,0.841-15.54,4.596-23.478,6.252
		c-3.708,0.775-7.483,1.029-11.076,0.009c-3.935-1.121-7.134-4.221-6.43-8.668c0.368-2.318,2.238-4.217,4.724-3.756
		c1.695,0.314,3.279,1.537,3.138,3.175c-0.095,1.102-1.113,1.788-2.221,1.592c-0.561-0.1-1.062-0.505-1.277-1.431
		c-0.289,0.906,0.463,1.815,1.248,1.909c1.607,0.33,2.894-0.762,3.262-1.843c0.727-2.33-1.704-4.912-4.105-4.695
		c-2.622-0.118-4.606,2.694-5.03,5.076c-0.812,4.564,2.617,7.832,6.551,9.17c3.44,1.168,7.701,1.476,11.866,1.22
		c8.251-0.509,15.076-4.188,23.007-5.774c2.492-0.498,4.97-0.661,7.426-0.18C79.499,23.051,83.521,27.064,79.896,33.422"/>
	<path clip-path="url(#SVGID_2_)" fill-rule="evenodd" clip-rule="evenodd" fill="#FFFFFF" d="M79.466,33.963
		c-4.429,5.77-12.24,5.817-18.567,3.818c-5.354-1.69-10.354-5.077-13.695-9.505c-3.49-4.627-5.351-10.591-2.413-16.052
		c0.219-0.352,0.456-0.645,0.747-0.942c4.356-4.437,12.639-4.296,16.118,0.283c1.494,1.963,2.102,4.746,1.134,8.333
		c1.249-2.811,1.156-6.516-0.419-8.772c-3.518-5.038-12.653-5.058-16.88,0.119c-0.255,0.314-0.504,0.636-0.748,0.958
		c-3.701,5.559-1.995,11.925,1.44,17.03c3.365,5,8.367,8.322,14.191,9.761C67.174,40.678,75.096,40.278,79.466,33.963"/>
	<path clip-path="url(#SVGID_2_)" fill="#FFFFFF" d="M15.138,23.878c0.146-2.397,1.902-4.08,3.955-4.025
		c2.153,0.057,4.495,2.251,1.786,3.976c3.349-0.985,0.966-5.18-1.91-4.775c-2.16,0.305-4.059,2.606-4.179,4.811
		c-0.323,5.937,7.637,9.369,12.149,5.553c3.068-2.596,3.785-7.7,2.817-11.727c0.659,4.236-0.166,9.008-3.517,11.097
		C22.267,31.266,14.808,29.272,15.138,23.878"/>
</g>
</svg>
